Test score:0.21446527621
Test accuracy:0.915852595001
Test precision:0.841861524446
Test recall:0.72812633376
Test f1score:0.780874249599
Test score:0.202898802534
Test accuracy:0.920936458467
Test precision:0.824367307426
Test recall:0.782822810992
Test f1score:0.803058114275
Test score:0.212062979914
Test accuracy:0.918550017239
Test precision:0.857203833767
Test recall:0.725270035129
Test f1score:0.785737150987
