Test score:0.234089390006
Test accuracy:0.908558062183
Test precision:0.870087861171
Test recall:0.653501428149
Test f1score:0.746400179991
Test score:0.210031996868
Test accuracy:0.918604100893
Test precision:0.828406375923
Test recall:0.7626973965
Test f1score:0.794195070254
Test score:0.211175488345
Test accuracy:0.920084640918
Test precision:0.850185999324
Test recall:0.742834630159
Test f1score:0.792893187553
Test score:0.214884377088
Test accuracy:0.915994564593
Test precision:0.810175788641
Test recall:0.773203322499
Test f1score:0.791257895444
