Test score:0.213254936218
Test accuracy:0.916231180579
Test precision:0.834666963029
Test recall:0.739715683378
Test f1score:0.784328059457
Test score:0.201689577984
Test accuracy:0.92020632914
Test precision:0.818927789934
Test recall:0.786368561016
Test f1score:0.802317986166
Test score:0.206669228015
Test accuracy:0.918543256782
Test precision:0.815975559522
Test recall:0.780426146623
Test f1score:0.797805037673
